{
  "private": {
    "layout": "layouts/private.html",
    "app": "merchant-filter",
    "url": "#/merchant-filter/filter:In Progress"
  },
  "public": {
    "layout": "layouts/public.html",
    "url": "#/securityLogin",
    "app": "login"
  },
  "apps": {
    "navheader": {
      "src": "header/index.html",
      "configuration": {}
    },
    "search-inline": {
      "src": "search/inline.html",
      "configuration": {}
    },
    "navigation": {
      "src": "navigation/index.html",
      "configuration": {
        "nodes": [
          {
            "title": "Merchants",
            "nodes": [
              {
                "title": "In Progress",
                "url": "#/merchant-filter/filter:In Progress"
              },
              {
                "title": "Active",
                "url": "#/merchant-filter/filter:Active"
              },
              {
                "title": "Canceled",
                "url": "#/merchant-filter/filter:Canceled"
              },
              {
                "title": "Declined",
                "url": "#/merchant-filter/filter:Declined"
              }
            ]
          }
        ]
      }
    },
    "securityLogin": {
      "layout": "layouts/public.html",
      "src": "security/login.html",
      "public": true
    },
    "securityRequest": {
      "layout": "layouts/public.html",
      "src": "security/request.html",
      "public": true
    },
    "securityReset": {
      "layout": "layouts/public.html",
      "src": "security/reset.html",
      "public": true
    },
    "applications": {
      "src": "applications/index.html"
    },
    "merchant": {
      "src": "merchant/index.html"
    },
    "queue": {
      "src": "queue/index.html"
    },
    "merchant-filter": {
      "src": "merchant-filter/index.html"
    },
    "merchantActivities": {
      "src": "ui-elements/groups/activities.html",
      "configuration": {
        "activities": [
          {
            "title": "Modify Status",
            "src": "activities/modify-status.html",
            "dependencies": []
          },
          {
            "title": "Add Bank Account",
            "src": "merchant/activities/add-bank-account.html",
            "dependencies": []
          },
          {
            "title": "Log Activity",
            "src": "merchant/activities/log-activity.html",
            "dependencies": []
          },
          {
            "title": "Send Message",
            "src": "activities/send-message.html",
            "dependencies": []
          },
          {
            "title": "Make Request",
            "src": "merchant/activities/make-request.html",
            "dependencies": []
          }
        ]
      }
    },
    "merchantTabs": {
      "src": "ui-elements/groups/tabs.html",
      "configuration": {
        "tabs": [
          {
            "icon": "list-ul",
            "text": "Applications",
            "src": "merchant/tabs/applications.html"
          },
          {
            "icon": "history",
            "text": "Activity History",
            "src": "merchant/tabs/activity-history.html"
          },
          {
            "icon": "dollar",
            "text": "Cash Flow",
            "src": "merchant/tabs/cash-flow.html"
          },
          {
            "icon": "file-text-o",
            "text": "Documents",
            "src": "merchant/tabs/document-manager.html"
          },
          {
            "icon": "user",
            "text": "Business",
            "src": "merchant/tabs/business-info.html"
          },
          {
            "icon": "warning",
            "text": "Alerts",
            "src": "merchant/tabs/alerts.html"
          }
        ]
      }
    }
  },
  "base": "http://localhost:5000/app/",
  "services": {
    "security": "http://192.168.1.9:5001",
    "queue": "http://192.168.1.9:5002",
    "loan": "http://192.168.1.9:5012",
    "loanActivityLog": "http://192.168.1.9:5022",
    "eventHub": "http://192.168.1.9:5004",
    "amortization": "http://192.168.1.9:5006",
    "search": "http://192.168.1.9:5010",
    "configuration": "http://192.168.1.9:5008",
    "inbox": "http://192.168.1.9:5011",
    "calendar": "http://192.168.1.9:5007",
    "loanFilters": "http://192.168.1.9:5017",
    "payment": "http://192.168.1.9:5018",
    "loanStatusManagement": "http://192.168.1.9:5021",
    "appRegistry": "http://localhost:1337/apps"
  }
}