{
    "accessKeyId": "AKIAIRXH7V2MS2SQNUSQ",
    "secretAccessKey": "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",
    "endpoint": "lf-alloy.s3-website-us-west-2.amazonaws.com",
    "region": "us-west-2"
}