{
  "applicationFilters": "http://192.168.1.9:5029",
  "loanActivityLog": "http://192.168.1.9:5022",
  "configuration": "http://192.168.1.9:5008",
  "private": {
    "layout": "layouts/private.html",
    "app": "application-filters",
    "url": "#/application-filters/filter:processing"
  },
  "base": "http://localhost:5000/app/",
  "merchant": "http://192.168.1.9:5009",
  "loan": "http://192.168.1.9:5012",
  "eventHub": "http://192.168.1.9:5004",
  "offerEngine": "http://192.168.1.9:5031",
  "services": {
    "security": "http://192.168.1.9:5001",
    "queue": "http://192.168.1.9:5002",
    "loan": "http://192.168.1.9:5012",
    "loanActivityLog": "http://192.168.1.9:5022",
    "eventHub": "http://192.168.1.9:5004",
    "amortization": "http://192.168.1.9:5006",
    "search": "http://192.168.1.9:5010",
    "configuration": "http://192.168.1.9:5008",
    "inbox": "http://192.168.1.9:5011",
    "calendar": "http://192.168.1.9:5007",
    "loanFilters": "http://192.168.1.9:5017",
    "payment": "http://192.168.1.9:5018",
    "loanStatusManagement": "http://192.168.1.9:5021",
    "appRegistry": "http://localhost:1337/apps"
  },
  "emailVerification": "http://192.168.1.9:5005",
  "lexisnexis": "http://192.168.1.9:5039",
  "decisionEngine": "http://10.1.1.99:5000",
  "appFlow": "http://192.168.1.9:5024",
  "actionCenter": "http://192.168.1.9:5023",
  "loanFilters": "http://192.168.1.9:5017",
  "appRegistry": "http://localhost:1337/apps",
  "cashflow": "http://192.168.1.9:5040",
  "public": {
    "layout": "layouts/public.html",
    "url": "#/securityLogin",
    "app": "login"
  },
  "amortization": "http://192.168.1.9:5006",
  "apps": {
    "navheader": {
      "src": "header/index.html",
      "configuration": {}
    },
    "search-inline": {
      "src": "search/inline.html",
      "configuration": {}
    },
    "navigation": {
      "src": "navigation/index.html",
      "configuration": {
        "nodes": [
          {
            "title": "Applications",
            "icon": "file-text-o",
            "nodes": [
              {
                "title": "Processing",
                "url": "#/application-filters/filter:processing"
              },
              {
                "title": "Underwriting",
                "url": "#/application-filters/filter:underwriting"
              },
              {
                "title": "Funding",
                "url": "#/application-filters/filter:funding"
              },
              {
                "title": "Terminated",
                "url": "#/application-filters/filter:terminated"
              },
              {
                "title": "Inservice",
                "url": "#/application-filters/filter:inservice"
              }
            ]
          }
        ]
      },
      "auth": true
    },
    "application": {
      "src": "application/index.html",
      "configuration": {}
    },
    "application-filters": {
      "src": "csr-applications/index.html",
      "configuration": {
        "filterMap": {
          "processing": [
            "200.01",
            "200.02",
            "200.03",
            "200.04",
            "200.05",
            "200.06"
          ],
          "underwriting": [
            "300.01",
            "300.02",
            "300.03",
            "300.04",
            "300.05"
          ],
          "funding": [
            "400.01"
          ],
          "terminated": [
            "500.01, 500.02",
            "500.03",
            "500.04"
          ],
          "inservice": [
            "600.01"
          ]
        }
      }
    },
    "securityLogin": {
      "layout": "layouts/public.html",
      "src": "security/login.html",
      "public": true
    },
    "securityRequest": {
      "layout": "layouts/public.html",
      "src": "security/request.html",
      "public": true
    },
    "securityReset": {
      "layout": "layouts/public.html",
      "src": "security/reset.html",
      "public": true
    },
    "applicationActivities": {
      "src": "ui-elements/groups/activities.html",
      "configuration": {
        "activities": [
          {
            "title": "Add Bank",
            "src": "activities/add-bank-account.html",
            "configuration": {
              "eventType": "AppActivityLogged",
              "parentDataName": "application"
            }
          },
          {
            "title": "Modify Status",
            "src": "activities/modify-status.html",
            "configuration": {}
          },
          {
            "title": "Log Activity",
            "src": "activities/log-activity.html",
            "configuration": {
              "eventType": "AppActivityLogged",
              "parentDataName": "application"
            }
          }
        ]
      }
    },
    "applicationTabs": {
      "src": "ui-elements/groups/tabs.html",
      "configuration": {
        "tabs": [
          {
            "icon": "repeat",
            "text": "Activity History",
            "src": "tabs/log.html",
            "configuration": {
              "type": "application"
            }
          },
          {
            "icon": "file-o",
            "text": "Documents",
            "src": "tabs/documents.html"
          },
          {
            "icon": "file-text-o",
            "text": "Application",
            "src": "tabs/application.html",
            "configuration": {
              "parentDataName": "application"
            }
          },
          {
            "icon": "user",
            "text": "Applicant",
            "src": "tabs/applicant.html",
            "configuration": {
              "parentDataName": "application"
            }
          },
          {
            "icon": "dollar",
            "text": "Offer",
            "src": "tabs/offers.html",
            "configuration": {
              "parentDataName": "application"
            }
          },
          {
            "icon": "dollar",
            "text": "Cashflow",
            "src": "tabs/cash-flow.html",
            "configuration": {
              "parentDataName": "application"
            }
          },
          {
            "icon": "warning",
            "text": "Alerts",
            "src": "tabs/csr-alerts.html",
            "configuration": {
              "parentDataName": "application"
            }
          }
        ]
      }
    }
  },
  "security": "http://192.168.1.9:5001",
  "calendar": "http://192.168.1.9:5007",
  "payment": "http://192.168.1.9:5018",
  "application": "http://192.168.1.9:5034",
  "useRegistry": "True",
  "businessReport": "http://192.168.1.9:5027",
  "loanStatusManagement": "http://192.168.1.9:5021",
  "consentTracker": "http://192.168.1.9:5030",
  "merchantFilter": "http://192.168.1.9:5028",
  "queue": "http://192.168.1.9:5002",
  "search": "http://192.168.1.9:5010",
  "inbox": "http://192.168.1.9:5011"
}